<?xml version="1.0" encoding="utf-8"?>
<!-- Generator: Adobe Illustrator 16.0.4, SVG Export Plug-In . SVG Version: 6.00 Build 0)  -->
<!DOCTYPE svg PUBLIC "-//W3C//DTD SVG 1.1//EN" "http://www.w3.org/Graphics/SVG/1.1/DTD/svg11.dtd">
<svg version="1.1" xmlns="http://www.w3.org/2000/svg" xmlns:xlink="http://www.w3.org/1999/xlink" x="0px" y="0px"
	 width="27.156px" height="27.188px" viewBox="0 0 27.156 27.188" enable-background="new 0 0 27.156 27.188" xml:space="preserve">
<g id="Layer_2" display="none">
	<rect x="-1156.844" y="-238" display="inline" fill="#333333" width="1827" height="427"/>
</g>
<g id="Layer_1">
	<path fill="#6E6F72" d="M23.128,4.048c-2.439-2.438-5.827-3.955-9.552-3.955c-3.721,0-7.112,1.516-9.548,3.955
		c-2.438,2.436-3.954,5.825-3.95,9.544c-0.004,3.724,1.512,7.116,3.95,9.549c2.436,2.438,5.827,3.952,9.548,3.952
		c3.725,0,7.112-1.513,9.552-3.952c2.435-2.433,3.954-5.826,3.95-9.549C27.082,9.873,25.562,6.484,23.128,4.048z"/>
	<g>
		<line fill="none" stroke="#FFFFFF" stroke-linecap="round" stroke-miterlimit="10" x1="6.656" y1="9" x2="6.656" y2="5"/>
		
			<line fill="none" stroke="#FFFFFF" stroke-width="2" stroke-linecap="round" stroke-miterlimit="10" x1="5.156" y1="10.469" x2="8.156" y2="10.469"/>
		<line fill="none" stroke="#FFFFFF" stroke-linecap="round" stroke-miterlimit="10" x1="6.656" y1="22" x2="6.656" y2="12"/>
		<line fill="none" stroke="#FFFFFF" stroke-linecap="round" stroke-miterlimit="10" x1="11.656" y1="18" x2="11.656" y2="22"/>
		
			<line fill="none" stroke="#FFFFFF" stroke-width="2" stroke-linecap="round" stroke-miterlimit="10" x1="13.156" y1="16.312" x2="10.156" y2="16.312"/>
		<line fill="none" stroke="#FFFFFF" stroke-linecap="round" stroke-miterlimit="10" x1="11.656" y1="5" x2="11.656" y2="14.438"/>
		<line fill="none" stroke="#FFFFFF" stroke-linecap="round" stroke-miterlimit="10" x1="16.156" y1="9" x2="16.156" y2="5"/>
		
			<line fill="none" stroke="#FFFFFF" stroke-width="2" stroke-linecap="round" stroke-miterlimit="10" x1="14.156" y1="11" x2="18.156" y2="11"/>
		<line fill="none" stroke="#FFFFFF" stroke-linecap="round" stroke-miterlimit="10" x1="16.156" y1="22" x2="16.156" y2="13"/>
		<line fill="none" stroke="#FFFFFF" stroke-linecap="round" stroke-miterlimit="10" x1="20.656" y1="16" x2="20.656" y2="22"/>
		
			<line fill="none" stroke="#FFFFFF" stroke-width="2" stroke-linecap="round" stroke-miterlimit="10" x1="22.156" y1="14.031" x2="19.156" y2="14.031"/>
		<line fill="none" stroke="#FFFFFF" stroke-linecap="round" stroke-miterlimit="10" x1="20.656" y1="5" x2="20.656" y2="12"/>
	</g>
</g>
</svg>
