<?xml version="1.0" encoding="utf-8"?>
<!-- Generator: Adobe Illustrator 16.0.3, SVG Export Plug-In . SVG Version: 6.00 Build 0)  -->
<!DOCTYPE svg PUBLIC "-//W3C//DTD SVG 1.1//EN" "http://www.w3.org/Graphics/SVG/1.1/DTD/svg11.dtd">
<svg version="1.1" id="Layer_1" xmlns="http://www.w3.org/2000/svg" xmlns:xlink="http://www.w3.org/1999/xlink" x="0px" y="0px"
	 width="48px" height="48px" viewBox="0 0 48 48" style="enable-background:new 0 0 48 48;" xml:space="preserve">
<style type="text/css">
<![CDATA[
	.st0{fill:none;stroke:#EC2429;stroke-width:2;stroke-miterlimit:10;}
	.st1{display:inline;fill:#ED1C24;}
	.st2{display:inline;fill:#ED2127;}
	.st3{fill:#EC2429;}
	.st4{fill:#ED2127;}
	.st5{display:inline;}
	.st6{display:none;fill:#ED1C24;}
	.st7{display:none;fill:#ED2127;}
	.st8{display:none;}
]]>
</style>
<g class="st8">
	<g class="st5">
		<path class="st4" d="M0.9,40c-0.2,0-0.3,0-0.5-0.1C0,39.6-0.1,39,0.1,38.6l11.5-20c0.3-0.5,0.8-0.6,1.3-0.3
			c0.5,0.3,0.6,0.8,0.3,1.3l-11.5,20C1.6,39.8,1.3,40,0.9,40z"/>
	</g>
	<g class="st5">
		<rect x="0" y="8" class="st4" width="1.9" height="31"/>
	</g>
	<g class="st5">
		<rect x="0.9" y="38.1" class="st4" width="47" height="1.9"/>
	</g>
	<g class="st5">
		<circle class="st4" cx="24" cy="16.3" r="2.4"/>
	</g>
	<g class="st5">
		<circle class="st4" cx="34.4" cy="16.3" r="2.4"/>
	</g>
	<g class="st5">
		<circle class="st4" cx="12.5" cy="19" r="2.4"/>
	</g>
	<g class="st5">
		<circle class="st4" cx="45.6" cy="14" r="2.4"/>
	</g>
	<g class="st5">
		<rect x="17.3" y="11.8" transform="matrix(0.225 0.9744 -0.9744 0.225 31.3293 -4.0425)" class="st4" width="1.9" height="11.8"/>
	</g>
	<g class="st5">
		<rect x="24" y="15.4" class="st4" width="10.4" height="1.9"/>
	</g>
	<g class="st5">
		
			<rect x="39.1" y="9.4" transform="matrix(0.2049 0.9788 -0.9788 0.2049 46.6635 -27.111)" class="st4" width="1.9" height="11.5"/>
	</g>
</g>
<path class="st6" d="M44,12.5v-1.7h-1.7h-6.8l-0.2-1.1L35,8l-1.7,0.3l-6.6,1.2l-0.4-1l-0.6-1.6l-1.6,0.6L5.6,14.1L4,14.7l0.6,1.6
	L13,39.6l0.6,1.6l1.6-0.6l2.6-0.9l1-0.2l2.8-0.5h1h19.6H44v-1.7L44,12.5z M24.6,9l8.5,23.2L14.7,39L6.2,15.7L24.6,9z M37.8,34.4
	l-10.6,1.9l6.5-2.4l1.6-0.6l-0.6-1.6l-7.5-20.5l6.3-1.1L37.8,34.4z M38.1,36.1l1.7-0.3l-0.3-1.7l-3.8-21.5h6.5l0,24.7H31.5
	L38.1,36.1z"/>
<path class="st7" d="M47.9,15.9c-0.3-2.1-1.7-3.4-3.4-4.4C42,10,39.2,9.4,36,9.4h-0.2h-0.2c-2,0-3.9,0.2-5.6,0.8
	c-1.7-0.5-3.6-0.8-5.6-0.8h-0.2h-0.2c-2.1,0-4.1,0.3-5.9,0.9c-1.8-0.6-3.8-0.9-5.9-0.9h-0.2H12c-3.2,0-6,0.6-8.5,2.1
	c-1.7,1-3.1,2.3-3.4,4.4c-0.2,1.4-0.1,2.9,0.2,4.3C0.9,22.9,2,25.5,3.2,28c1.4,2.8,2.9,5.5,5,7.9c0.7,0.9,1.5,1.7,2.5,2.3
	c0.4,0.2,0.8,0.4,1.3,0.4c0.1,0,0.1,0,0.2,0c0.1,0,0.1,0,0.2,0c0.4,0,0.8-0.1,1.2-0.4c1-0.6,1.8-1.4,2.5-2.3
	c0.8-0.9,1.5-1.9,2.1-2.9c0.7,1,1.4,2,2.1,2.9c0.7,0.9,1.5,1.7,2.5,2.3c0.4,0.2,0.8,0.4,1.2,0.4c0.1,0,0.1,0,0.2,0
	c0.1,0,0.1,0,0.2,0c0.4,0,0.8-0.1,1.3-0.4c1-0.6,1.8-1.4,2.5-2.3c0.7-0.8,1.3-1.6,1.8-2.5c0.6,0.9,1.2,1.7,1.8,2.5
	c0.7,0.9,1.5,1.7,2.5,2.3c0.4,0.2,0.8,0.4,1.3,0.4c0.1,0,0.1,0,0.2,0c0.1,0,0.1,0,0.2,0c0.4,0,0.8-0.1,1.2-0.4
	c1-0.6,1.8-1.4,2.5-2.3c2-2.4,3.6-5.1,5-7.9c1.3-2.5,2.3-5.1,2.9-7.8C48,18.8,48.1,17.4,47.9,15.9z M24.5,37.1
	C24.4,37.1,24.4,37.1,24.5,37.1l-0.2,0l-0.1,0c0,0,0,0-0.1,0c-0.2,0-0.3-0.1-0.5-0.2c-0.8-0.5-1.5-1.2-2.1-1.9
	c-2-2.4-3.5-5.2-4.8-7.6c-1.4-2.9-2.3-5.2-2.8-7.5c-0.3-1.5-0.4-2.6-0.2-3.7c0.2-1.4,1-2.4,2.7-3.4c2.1-1.3,4.5-1.8,7.7-1.8h0.2h0.2
	c3.2,0,5.6,0.6,7.7,1.8c1.6,1,2.5,2,2.7,3.4c0.2,1.1,0.1,2.2-0.2,3.7c-0.5,2.3-1.3,4.6-2.8,7.5c-1.2,2.4-2.7,5.2-4.8,7.6
	c-0.6,0.7-1.3,1.4-2.1,1.9C24.8,37,24.6,37.1,24.5,37.1z M14.9,35c-0.6,0.7-1.3,1.4-2.1,1.9c-0.2,0.1-0.3,0.2-0.5,0.2c0,0,0,0-0.1,0
	l-0.1,0l-0.1,0c0,0,0,0-0.1,0c-0.2,0-0.3-0.1-0.5-0.2c-0.8-0.5-1.5-1.2-2.1-1.9c-2-2.4-3.5-5.2-4.8-7.6c-1.4-2.9-2.3-5.2-2.8-7.5
	c-0.3-1.5-0.4-2.6-0.2-3.7c0.2-1.4,1-2.4,2.7-3.4c2.1-1.3,4.5-1.8,7.7-1.8h0.2h0.2c1.4,0,2.6,0.1,3.7,0.3c-0.1,0.1-0.2,0.1-0.4,0.2
	c-1.7,1-3.1,2.3-3.4,4.4c-0.2,1.4-0.1,2.9,0.2,4.3c0.6,2.8,1.7,5.3,2.9,7.8c0.6,1.2,1.2,2.4,1.9,3.6C16.6,32.8,15.8,33.9,14.9,35z
	 M46.2,19.9c-0.5,2.3-1.3,4.6-2.8,7.5c-1.2,2.4-2.7,5.2-4.8,7.6c-0.6,0.7-1.3,1.4-2.1,1.9c-0.2,0.1-0.3,0.2-0.5,0.2c0,0,0,0-0.1,0
	l-0.1,0l-0.1,0c0,0,0,0-0.1,0c-0.2,0-0.3-0.1-0.5-0.2c-0.8-0.5-1.5-1.2-2.1-1.9c-0.8-0.9-1.5-1.9-2.1-2.9c0.8-1.3,1.5-2.7,2.2-4.1
	c1.3-2.5,2.3-5.1,2.9-7.8c0.3-1.4,0.5-2.8,0.2-4.3c-0.3-2.1-1.7-3.4-3.4-4.4c-0.2-0.1-0.3-0.2-0.5-0.3c1-0.2,2.1-0.3,3.3-0.3h0.2H36
	c3.2,0,5.6,0.6,7.7,1.8c1.6,1,2.5,2,2.7,3.4C46.6,17.2,46.5,18.4,46.2,19.9z"/>
<g class="st8">
	<g class="st5">
		<rect y="18.5" class="st4" width="9.6" height="2"/>
	</g>
	<g class="st5">
		<rect y="23.2" class="st4" width="9.6" height="2"/>
	</g>
	<g class="st5">
		<rect y="27.8" class="st4" width="9.6" height="2"/>
	</g>
	<g class="st5">
		<rect y="32.3" class="st4" width="9.6" height="2"/>
	</g>
	<g class="st5">
		<rect y="37" class="st4" width="9.6" height="2"/>
	</g>
	<g class="st5">
		<rect x="38.6" y="18.5" class="st4" width="9.4" height="2"/>
	</g>
	<g class="st5">
		<rect x="38.6" y="13.7" class="st4" width="9.4" height="2"/>
	</g>
	<g class="st5">
		<rect x="38.6" y="23.2" class="st4" width="9.4" height="2"/>
	</g>
	<g class="st5">
		<rect x="38.6" y="27.8" class="st4" width="9.4" height="2"/>
	</g>
	<g class="st5">
		<rect x="38.6" y="32.3" class="st4" width="9.4" height="2"/>
	</g>
	<g class="st5">
		<rect x="38.6" y="37" class="st4" width="9.4" height="2"/>
	</g>
	<g class="st5">
		<rect x="14.3" y="18.5" class="st4" width="19.4" height="2"/>
	</g>
	<g class="st5">
		<rect x="14.3" y="13.7" class="st4" width="19.4" height="2"/>
	</g>
	<g class="st5">
		<rect x="14.3" y="9" class="st4" width="19.4" height="2"/>
	</g>
	<g class="st5">
		<rect x="14.3" y="23.2" class="st4" width="19.4" height="2"/>
	</g>
	<g class="st5">
		<rect x="14.3" y="27.8" class="st4" width="19.4" height="2"/>
	</g>
	<g class="st5">
		<rect x="14.3" y="32.3" class="st4" width="19.4" height="2"/>
	</g>
	<g class="st5">
		<rect x="14.3" y="37" class="st4" width="19.4" height="2"/>
	</g>
</g>
<g class="st8">
	<rect x="23.2" y="25.3" class="st1" width="1.7" height="4.5"/>
	<rect x="23.2" y="32.1" class="st1" width="1.7" height="4.5"/>
	<path class="st1" d="M4,40.9h40l-12.1-21h10.9v-1.7H36C35.5,12,30.3,7.1,24,7.1c-6.3,0-11.5,4.9-12,11.2H4v1.7h12.1L4,40.9z
		 M41.1,39.2H6.9L18,20.1l5.2,0V23h1.7v-2.9l5.2,0L41.1,39.2z M24,8.8c5.4,0,9.9,4.2,10.3,9.5H13.7C14.1,12.9,18.6,8.8,24,8.8z"/>
</g>
<g class="st8">
	<path class="st2" d="M24,6c9.9,0,18,8.1,18,18c0,9.9-8.1,18-18,18S6,33.9,6,24C6,14.1,14.1,6,24,6 M24,4C13,4,4,13,4,24
		c0,11,9,20,20,20c11,0,20-9,20-20C44,13,35,4,24,4L24,4z"/>
	<path class="st2" d="M24,11.8c6.7,0,12.2,5.5,12.2,12.2c0,6.7-5.5,12.2-12.2,12.2S11.8,30.7,11.8,24C11.8,17.3,17.3,11.8,24,11.8
		 M24,9.8C16.2,9.8,9.8,16.2,9.8,24c0,7.8,6.3,14.1,14.2,14.1S38.2,31.8,38.2,24C38.2,16.2,31.8,9.8,24,9.8L24,9.8z"/>
	<path class="st2" d="M8.7,7.2c0.9,0,1.6,0.7,1.6,1.6c0,0.9-0.7,1.6-1.6,1.6S7.2,9.6,7.2,8.7C7.2,7.9,7.9,7.2,8.7,7.2 M8.7,5.2
		c-2,0-3.5,1.6-3.5,3.5c0,2,1.6,3.5,3.5,3.5c2,0,3.5-1.6,3.5-3.5C12.3,6.8,10.7,5.2,8.7,5.2L8.7,5.2z"/>
	<path class="st2" d="M39.3,7.2c0.9,0,1.6,0.7,1.6,1.6c0,0.9-0.7,1.6-1.6,1.6c-0.9,0-1.6-0.7-1.6-1.6C37.7,7.9,38.4,7.2,39.3,7.2
		 M39.3,5.2c-2,0-3.5,1.6-3.5,3.5c0,2,1.6,3.5,3.5,3.5c2,0,3.5-1.6,3.5-3.5C42.8,6.8,41.2,5.2,39.3,5.2L39.3,5.2z"/>
	<path class="st2" d="M8.7,37.7c0.9,0,1.6,0.7,1.6,1.6c0,0.9-0.7,1.6-1.6,1.6s-1.6-0.7-1.6-1.6C7.2,38.4,7.9,37.7,8.7,37.7
		 M8.7,35.7c-2,0-3.5,1.6-3.5,3.5s1.6,3.5,3.5,3.5c2,0,3.5-1.6,3.5-3.5S10.7,35.7,8.7,35.7L8.7,35.7z"/>
	<path class="st2" d="M39.3,37.7c0.9,0,1.6,0.7,1.6,1.6c0,0.9-0.7,1.6-1.6,1.6c-0.9,0-1.6-0.7-1.6-1.6
		C37.7,38.4,38.4,37.7,39.3,37.7 M39.3,35.7c-2,0-3.5,1.6-3.5,3.5s1.6,3.5,3.5,3.5c2,0,3.5-1.6,3.5-3.5S41.2,35.7,39.3,35.7
		L39.3,35.7z"/>
</g>
<g class="st8">
	<path class="st2" d="M38.7,3.8H9.3H7.5v1.8v17.4v0v1.8v0v17.4v1.8h1.8h29.4h1.8v-1.8V24.9v0v-1.8v0V5.6V3.8H38.7z M9.3,5.6h29.4
		v17.4H9.3V5.6z M38.7,42.4H9.3V24.9h29.4V42.4z"/>
	<path class="st2" d="M13,7.7h-1.8v1.8v9.8V21H13h7.7h1.8v-1.8V9.5V7.7h-1.8H13z M20.7,19.2H13V9.5h7.7V19.2z"/>
	<rect x="24.4" y="7.7" class="st2" width="12.1" height="1.8"/>
	<rect x="24.4" y="11.5" class="st2" width="12.1" height="1.8"/>
	<rect x="24.4" y="15.4" class="st2" width="12.1" height="1.8"/>
	<rect x="24.4" y="19.3" class="st2" width="12.1" height="1.8"/>
	<rect x="11.5" y="38.5" class="st2" width="12.1" height="1.8"/>
	<rect x="11.5" y="34.7" class="st2" width="12.1" height="1.8"/>
	<rect x="11.5" y="30.8" class="st2" width="12.1" height="1.8"/>
	<rect x="11.5" y="26.9" class="st2" width="12.1" height="1.8"/>
	<path class="st2" d="M26.9,35.6c0.7,1.4,1.4,2.7,2.4,3.8c0.4,0.4,0.7,0.8,1.2,1.1c0.2,0.1,0.4,0.2,0.6,0.2c0,0,0.1,0,0.1,0
		c0,0,0.1,0,0.1,0c0.2,0,0.4-0.1,0.6-0.2c0.5-0.3,0.9-0.7,1.2-1.1c1-1.2,1.7-2.5,2.4-3.8c0.6-1.2,1.1-2.5,1.4-3.8
		c0.1-0.7,0.2-1.4,0.1-2.1c-0.2-1-0.8-1.6-1.6-2.1c-1.2-0.7-2.6-1-4.1-1h-0.1h-0.1c-1.5,0-2.9,0.3-4.1,1c-0.8,0.5-1.5,1.1-1.6,2.1
		c-0.1,0.7,0,1.4,0.1,2.1C25.7,33.1,26.3,34.4,26.9,35.6z M27.1,30c0-0.2,0.1-0.5,0.8-0.9c0.8-0.5,1.8-0.7,3.2-0.7h0.1h0.1
		c1.4,0,2.3,0.2,3.2,0.7c0.7,0.4,0.8,0.7,0.8,0.9c0.1,0.4,0,0.8-0.1,1.4c-0.2,1-0.6,2-1.3,3.4c-0.6,1.1-1.3,2.4-2.2,3.5
		c-0.2,0.2-0.3,0.4-0.5,0.5c-0.2-0.1-0.4-0.3-0.5-0.5c-0.9-1.1-1.6-2.4-2.2-3.5c-0.7-1.3-1-2.3-1.3-3.4C27.1,30.8,27.1,30.4,27.1,30
		z"/>
</g>
<g class="st8">
	<path class="st2" d="M45.4,39.3l2.6,0v-0.6v-2.1V11.3V8.7h-2.6H2.6H0v2.6v25.4v0v2.6v0 M2.6,11.3h42.8v25.4H2.6V11.3z M2.6,39.3
		h42.8"/>
	<path class="st2" d="M7.9,14.2H5.3v2.6v14.2v2.6h2.6h11.3h2.6v-2.6V16.9v-2.6h-2.6H7.9z M19.2,31.1H7.9V16.9h11.3V31.1z"/>
	<rect x="24.5" y="14.3" class="st2" width="17.6" height="2.6"/>
	<rect x="24.5" y="19.9" class="st2" width="17.6" height="2.6"/>
	<rect x="24.5" y="25.5" class="st2" width="17.6" height="2.6"/>
	<rect x="24.5" y="31.1" class="st2" width="17.6" height="2.6"/>
</g>
<g>
	<path class="st3" d="M46,10.9v26.1H2V10.9H46 M48,8.9h-2H2H0v2v26.1v2h2h44h2v-2V10.9V8.9L48,8.9z"/>
</g>
<g>
	<path class="st3" d="M20,15.3v17.3H6.3V15.3H20 M22,13.3h-2H6.3h-2v2v17.3v2h2H20h2v-2V15.3V13.3L22,13.3z"/>
</g>
<line class="st0" x1="24.5" y1="15.3" x2="42.7" y2="15.3"/>
<line class="st0" x1="24.5" y1="19.8" x2="42.7" y2="19.8"/>
<line class="st0" x1="24.5" y1="24.1" x2="42.7" y2="24.1"/>
<line class="st0" x1="24.5" y1="28.3" x2="42.7" y2="28.3"/>
<line class="st0" x1="24.5" y1="32.7" x2="42.7" y2="32.7"/>
</svg>
