<?xml version="1.0" encoding="utf-8"?>
<!-- Generator: Adobe Illustrator 16.0.3, SVG Export Plug-In . SVG Version: 6.00 Build 0)  -->
<!DOCTYPE svg PUBLIC "-//W3C//DTD SVG 1.1//EN" "http://www.w3.org/Graphics/SVG/1.1/DTD/svg11.dtd">
<svg version="1.1" id="Layer_1" xmlns="http://www.w3.org/2000/svg" xmlns:xlink="http://www.w3.org/1999/xlink" x="0px" y="0px"
	 width="48px" height="48px" viewBox="0 0 48 48" style="enable-background:new 0 0 48 48;" xml:space="preserve">
<style type="text/css">
<![CDATA[
	.st0{fill:#ED1C24;}
	.st1{fill:#ED2127;}
	.st2{display:inline;}
	.st3{display:none;fill:#ED1C24;}
	.st4{display:none;fill:#ED2127;}
	.st5{display:none;}
]]>
</style>
<g class="st5">
	<g class="st2">
		<path class="st1" d="M0.9,40c-0.2,0-0.3,0-0.5-0.1C0,39.6-0.1,39,0.1,38.6l11.5-20c0.3-0.5,0.8-0.6,1.3-0.3
			c0.5,0.3,0.6,0.8,0.3,1.3l-11.5,20C1.6,39.8,1.3,40,0.9,40z"/>
	</g>
	<g class="st2">
		<rect x="0" y="8" class="st1" width="1.9" height="31"/>
	</g>
	<g class="st2">
		<rect x="0.9" y="38.1" class="st1" width="47" height="1.9"/>
	</g>
	<g class="st2">
		<circle class="st1" cx="24" cy="16.3" r="2.4"/>
	</g>
	<g class="st2">
		<circle class="st1" cx="34.4" cy="16.3" r="2.4"/>
	</g>
	<g class="st2">
		<circle class="st1" cx="12.5" cy="19" r="2.4"/>
	</g>
	<g class="st2">
		<circle class="st1" cx="45.6" cy="14" r="2.4"/>
	</g>
	<g class="st2">
		<rect x="17.3" y="11.8" transform="matrix(0.225 0.9744 -0.9744 0.225 31.3293 -4.0425)" class="st1" width="1.9" height="11.8"/>
	</g>
	<g class="st2">
		<rect x="24" y="15.4" class="st1" width="10.4" height="1.9"/>
	</g>
	<g class="st2">
		
			<rect x="39.1" y="9.4" transform="matrix(0.2049 0.9788 -0.9788 0.2049 46.6635 -27.111)" class="st1" width="1.9" height="11.5"/>
	</g>
</g>
<path class="st3" d="M44,12.5v-1.7h-1.7h-6.8l-0.2-1.1L35,8l-1.7,0.3l-6.6,1.2l-0.4-1l-0.6-1.6l-1.6,0.6L5.6,14.1L4,14.7l0.6,1.6
	L13,39.6l0.6,1.6l1.6-0.6l2.6-0.9l1-0.2l2.8-0.5h1h19.6H44v-1.7L44,12.5z M24.6,9l8.5,23.2L14.7,39L6.2,15.7L24.6,9z M37.8,34.4
	l-10.6,1.9l6.5-2.4l1.6-0.6l-0.6-1.6l-7.5-20.5l6.3-1.1L37.8,34.4z M38.1,36.1l1.7-0.3l-0.3-1.7l-3.8-21.5h6.5l0,24.7H31.5
	L38.1,36.1z"/>
<path class="st4" d="M47.9,15.9c-0.3-2.1-1.7-3.4-3.4-4.4C42,10,39.2,9.4,36,9.4h-0.2h-0.2c-2,0-3.9,0.2-5.6,0.8
	c-1.7-0.5-3.6-0.8-5.6-0.8h-0.2h-0.2c-2.1,0-4.1,0.3-5.9,0.9c-1.8-0.6-3.8-0.9-5.9-0.9h-0.2H12c-3.2,0-6,0.6-8.5,2.1
	c-1.7,1-3.1,2.3-3.4,4.4c-0.2,1.4-0.1,2.9,0.2,4.3C0.9,22.9,2,25.5,3.2,28c1.4,2.8,2.9,5.5,5,7.9c0.7,0.9,1.5,1.7,2.5,2.3
	c0.4,0.2,0.8,0.4,1.3,0.4c0.1,0,0.1,0,0.2,0c0.1,0,0.1,0,0.2,0c0.4,0,0.8-0.1,1.2-0.4c1-0.6,1.8-1.4,2.5-2.3
	c0.8-0.9,1.5-1.9,2.1-2.9c0.7,1,1.4,2,2.1,2.9c0.7,0.9,1.5,1.7,2.5,2.3c0.4,0.2,0.8,0.4,1.2,0.4c0.1,0,0.1,0,0.2,0
	c0.1,0,0.1,0,0.2,0c0.4,0,0.8-0.1,1.3-0.4c1-0.6,1.8-1.4,2.5-2.3c0.7-0.8,1.3-1.6,1.8-2.5c0.6,0.9,1.2,1.7,1.8,2.5
	c0.7,0.9,1.5,1.7,2.5,2.3c0.4,0.2,0.8,0.4,1.3,0.4c0.1,0,0.1,0,0.2,0c0.1,0,0.1,0,0.2,0c0.4,0,0.8-0.1,1.2-0.4
	c1-0.6,1.8-1.4,2.5-2.3c2-2.4,3.6-5.1,5-7.9c1.3-2.5,2.3-5.1,2.9-7.8C48,18.8,48.1,17.4,47.9,15.9z M24.5,37.1
	C24.4,37.1,24.4,37.1,24.5,37.1l-0.2,0l-0.1,0c0,0,0,0-0.1,0c-0.2,0-0.3-0.1-0.5-0.2c-0.8-0.5-1.5-1.2-2.1-1.9
	c-2-2.4-3.5-5.2-4.8-7.6c-1.4-2.9-2.3-5.2-2.8-7.5c-0.3-1.5-0.4-2.6-0.2-3.7c0.2-1.4,1-2.4,2.7-3.4c2.1-1.3,4.5-1.8,7.7-1.8h0.2h0.2
	c3.2,0,5.6,0.6,7.7,1.8c1.6,1,2.5,2,2.7,3.4c0.2,1.1,0.1,2.2-0.2,3.7c-0.5,2.3-1.3,4.6-2.8,7.5c-1.2,2.4-2.7,5.2-4.8,7.6
	c-0.6,0.7-1.3,1.4-2.1,1.9C24.8,37,24.6,37.1,24.5,37.1z M14.9,35c-0.6,0.7-1.3,1.4-2.1,1.9c-0.2,0.1-0.3,0.2-0.5,0.2c0,0,0,0-0.1,0
	l-0.1,0l-0.1,0c0,0,0,0-0.1,0c-0.2,0-0.3-0.1-0.5-0.2c-0.8-0.5-1.5-1.2-2.1-1.9c-2-2.4-3.5-5.2-4.8-7.6c-1.4-2.9-2.3-5.2-2.8-7.5
	c-0.3-1.5-0.4-2.6-0.2-3.7c0.2-1.4,1-2.4,2.7-3.4c2.1-1.3,4.5-1.8,7.7-1.8h0.2h0.2c1.4,0,2.6,0.1,3.7,0.3c-0.1,0.1-0.2,0.1-0.4,0.2
	c-1.7,1-3.1,2.3-3.4,4.4c-0.2,1.4-0.1,2.9,0.2,4.3c0.6,2.8,1.7,5.3,2.9,7.8c0.6,1.2,1.2,2.4,1.9,3.6C16.6,32.8,15.8,33.9,14.9,35z
	 M46.2,19.9c-0.5,2.3-1.3,4.6-2.8,7.5c-1.2,2.4-2.7,5.2-4.8,7.6c-0.6,0.7-1.3,1.4-2.1,1.9c-0.2,0.1-0.3,0.2-0.5,0.2c0,0,0,0-0.1,0
	l-0.1,0l-0.1,0c0,0,0,0-0.1,0c-0.2,0-0.3-0.1-0.5-0.2c-0.8-0.5-1.5-1.2-2.1-1.9c-0.8-0.9-1.5-1.9-2.1-2.9c0.8-1.3,1.5-2.7,2.2-4.1
	c1.3-2.5,2.3-5.1,2.9-7.8c0.3-1.4,0.5-2.8,0.2-4.3c-0.3-2.1-1.7-3.4-3.4-4.4c-0.2-0.1-0.3-0.2-0.5-0.3c1-0.2,2.1-0.3,3.3-0.3h0.2H36
	c3.2,0,5.6,0.6,7.7,1.8c1.6,1,2.5,2,2.7,3.4C46.6,17.2,46.5,18.4,46.2,19.9z"/>
<g class="st5">
	<g class="st2">
		<rect y="18.5" class="st1" width="9.6" height="2"/>
	</g>
	<g class="st2">
		<rect y="23.2" class="st1" width="9.6" height="2"/>
	</g>
	<g class="st2">
		<rect y="27.8" class="st1" width="9.6" height="2"/>
	</g>
	<g class="st2">
		<rect y="32.3" class="st1" width="9.6" height="2"/>
	</g>
	<g class="st2">
		<rect y="37" class="st1" width="9.6" height="2"/>
	</g>
	<g class="st2">
		<rect x="38.6" y="18.5" class="st1" width="9.4" height="2"/>
	</g>
	<g class="st2">
		<rect x="38.6" y="13.7" class="st1" width="9.4" height="2"/>
	</g>
	<g class="st2">
		<rect x="38.6" y="23.2" class="st1" width="9.4" height="2"/>
	</g>
	<g class="st2">
		<rect x="38.6" y="27.8" class="st1" width="9.4" height="2"/>
	</g>
	<g class="st2">
		<rect x="38.6" y="32.3" class="st1" width="9.4" height="2"/>
	</g>
	<g class="st2">
		<rect x="38.6" y="37" class="st1" width="9.4" height="2"/>
	</g>
	<g class="st2">
		<rect x="14.3" y="18.5" class="st1" width="19.4" height="2"/>
	</g>
	<g class="st2">
		<rect x="14.3" y="13.7" class="st1" width="19.4" height="2"/>
	</g>
	<g class="st2">
		<rect x="14.3" y="9" class="st1" width="19.4" height="2"/>
	</g>
	<g class="st2">
		<rect x="14.3" y="23.2" class="st1" width="19.4" height="2"/>
	</g>
	<g class="st2">
		<rect x="14.3" y="27.8" class="st1" width="19.4" height="2"/>
	</g>
	<g class="st2">
		<rect x="14.3" y="32.3" class="st1" width="19.4" height="2"/>
	</g>
	<g class="st2">
		<rect x="14.3" y="37" class="st1" width="19.4" height="2"/>
	</g>
</g>
<g>
	<rect x="23.2" y="25.3" class="st0" width="1.7" height="4.5"/>
	<rect x="23.2" y="32.1" class="st0" width="1.7" height="4.5"/>
	<path class="st0" d="M4,40.9h40l-12.1-21h10.9v-1.7H36C35.5,12,30.3,7.1,24,7.1c-6.3,0-11.5,4.9-12,11.2H4v1.7h12.1L4,40.9z
		 M41.1,39.2H6.9L18,20.1l5.2,0V23h1.7v-2.9l5.2,0L41.1,39.2z M24,8.8c5.4,0,9.9,4.2,10.3,9.5H13.7C14.1,12.9,18.6,8.8,24,8.8z"/>
</g>
</svg>
