<?xml version="1.0" encoding="utf-8"?>
<!-- Generator: Adobe Illustrator 16.0.4, SVG Export Plug-In . SVG Version: 6.00 Build 0)  -->
<!DOCTYPE svg PUBLIC "-//W3C//DTD SVG 1.1//EN" "http://www.w3.org/Graphics/SVG/1.1/DTD/svg11.dtd">
<svg version="1.1" id="Layer_1" xmlns="http://www.w3.org/2000/svg" xmlns:xlink="http://www.w3.org/1999/xlink" x="0px" y="0px"
	 width="438.5px" height="99px" viewBox="0 0 438.5 99" enable-background="new 0 0 438.5 99" xml:space="preserve">
<g>
	<g>
		<path fill="#D13239" d="M4.25,46.95h13.133l9.62,26.807l9.623-26.807h12.889L32.329,89.609H21.438L4.25,46.95z"/>
		<path fill="#D13239" d="M53.87,46.95h11.8v42.355h-11.8V46.95z"/>
		<path fill="#D13239" d="M73.417,46.95h20.029c3.269,0,6.03,0.403,8.29,1.208c2.26,0.809,4.095,1.937,5.508,3.39
			c2.5,2.419,3.751,5.709,3.751,9.863v0.121c0,3.268-0.785,5.971-2.359,8.108c-1.573,2.14-3.692,3.772-6.354,4.902l10.105,14.763
			H98.831L90.3,76.479h-0.121h-5.024v12.826H73.417V46.95z M92.902,67.281c2.017,0,3.569-0.454,4.66-1.362
			c1.089-0.908,1.633-2.128,1.633-3.66v-0.122c0-1.695-0.566-2.953-1.695-3.781c-1.129-0.825-2.682-1.24-4.658-1.24h-7.688v10.166
			H92.902z"/>
		<path fill="#D13239" d="M127.272,57.235h-12.708V46.95h37.155v10.285h-12.708v32.07h-11.739V57.235z"/>
		<path fill="#D13239" d="M175.925,90.093c-3.027,0-5.75-0.382-8.17-1.148s-4.479-1.945-6.172-3.54
			c-1.696-1.594-2.994-3.61-3.904-6.051c-0.908-2.441-1.362-5.315-1.362-8.623V46.95H168.3v23.538c0,3.066,0.699,5.336,2.1,6.809
			c1.403,1.473,3.283,2.208,5.645,2.208c2.363,0,4.242-0.705,5.645-2.119c1.401-1.411,2.102-3.608,2.102-6.595V46.95h11.98v23.478
			c0,3.429-0.473,6.384-1.421,8.865s-2.28,4.518-3.995,6.111c-1.714,1.595-3.792,2.773-6.232,3.54
			C181.683,89.711,178.95,90.093,175.925,90.093z"/>
		<path fill="#D13239" d="M217.374,46.646h11.318l18.031,42.66h-12.586l-3.088-7.562h-16.338l-3.024,7.562h-12.345L217.374,46.646z
			 M227.662,72.666l-4.72-12.041l-4.781,12.041H227.662z"/>
		<path fill="#D13239" d="M250.837,46.95h11.74v32.071h20.515v10.284h-32.255V46.95z"/>
		<path fill="#D13239" d="M304.874,46.95h20.029c3.27,0,6.031,0.403,8.291,1.208c2.261,0.809,4.096,1.937,5.508,3.39
			c2.502,2.419,3.752,5.709,3.752,9.863v0.121c0,3.268-0.785,5.971-2.358,8.108c-1.575,2.14-3.693,3.772-6.357,4.902l10.107,14.763
			h-13.554l-8.535-12.826h-0.12h-5.021v12.826h-11.741V46.95z M324.36,67.281c2.017,0,3.569-0.454,4.66-1.362
			c1.089-0.908,1.633-2.128,1.633-3.66v-0.122c0-1.695-0.566-2.953-1.693-3.781c-1.131-0.825-2.685-1.24-4.659-1.24h-7.686v10.166
			H324.36z"/>
		<path fill="#D13239" d="M367.447,90.093c-3.026,0-5.751-0.382-8.172-1.148c-2.42-0.767-4.477-1.945-6.172-3.54
			c-1.696-1.594-2.995-3.61-3.903-6.051c-0.908-2.441-1.359-5.315-1.359-8.623V46.95h11.979v23.538c0,3.066,0.699,5.336,2.099,6.809
			c1.405,1.473,3.286,2.208,5.646,2.208c2.362,0,4.244-0.705,5.646-2.119c1.4-1.411,2.102-3.608,2.102-6.595V46.95h11.979v23.478
			c0,3.429-0.475,6.384-1.421,8.865c-0.949,2.481-2.278,4.518-3.993,6.111c-1.717,1.595-3.793,2.773-6.232,3.54
			C373.203,89.711,370.471,90.093,367.447,90.093z"/>
		<path fill="#D13239" d="M394.252,46.95h10.976l17.465,22.388V46.95h11.558v42.355h-10.311l-18.131-23.234v23.234h-11.557V46.95z"
			/>
	</g>
	<g>
		<path fill="#D13239" d="M231.326,23.259h-4.411c-1.384,0-1.767-0.511-1.362-1.53l1.645-3.671l-5.416,4.396
			c0,0-1.268,0.805-2.194,0.805h-1.23l2.646-6.509h3.982l-0.609,1.79l1.561-1.131c1.125-0.857,2.787-0.953,4.145-0.913
			c0.748,0.019,1.427,0.528,0.904,1.783l-1.427,3.45h4.53C233.656,23.002,232.05,23.259,231.326,23.259"/>
		<polygon fill="#D13239" points="217.47,15.067 220.134,15.067 218.707,18.662 217.471,18.662 		"/>
		<polygon fill="#D13239" points="233.91,15.122 236.962,15.122 233.985,18.498 232.331,18.498 		"/>
		<path fill="#D13239" d="M209.947,21.506l-1.957-2.509l5.869-4.538h-3.719l-6.128,4.224l3.577-7.793h-3.913l-0.574,1.273
			l-4.032,9.027h-8.118c-1.526,0-2.351-0.539-1.85-1.747l1.114-2.771h1.734v0.004c0.616-0.014,2.211,0.024,1.991,0.764
			c-0.03,0.098-0.066,0.202-0.105,0.304l-0.406,1.303c0.424,0.194,0.902,0.32,1.423,0.32c1.611,0,2.934-1.054,2.934-2.362
			c0-1.311-1.322-2.336-2.934-2.336h-10.124h-0.757h-8.691c-4.354,0-6.778,1.669-7.253,4.109c-0.16,0.818-0.023,1.617,0.421,2.315
			c0.119,0.167,0.272,0.344,0.445,0.529h-0.163h-4.41l-2.669-3.83c2.543-0.792,7.547-2.663,7.547-5.355
			c0-3.132-4.255-3.53-6.878-3.53h-12.768l-1.971,2.569h12.924c1.504,0,3.19,0.333,3.19,1.818c0,1.146-1.037,2.024-2.516,2.632
			c-0.246,0.107-1.401,0.395-2.543,0.665l-1.112,2.53l1.852,2.562c0,0,0.974,1.568,2.453,1.568h4.879
			c0.993,0,2.062-0.366,2.472-1.083c0.027-0.07,0.051-0.14,0.072-0.204c1.089,0.873,2.896,1.448,5.583,1.436
			c3.818-0.029,6.628-1.595,6.897-4.441c0.089-0.669-0.356-1.901-1.038-2.287h2.761h1.595c-0.751,0.685-1.267,1.552-1.405,2.617
			c-0.381,3.058,3.403,3.905,6.219,3.905h8.626c0.036,0,0.075-0.005,0.115-0.007h1.451c1.421,0,2.038-0.375,3.271-1.252
			c0,0,0.467-0.328,1.108-0.773c0.647,0.925,1.579,1.973,2.478,1.973h5.152c0.856,0,2.76-0.271,3.269-1.629H209.947z M177.438,18.08
			l-1.513,3.798c-4.329,0.444-3.087-2.019-3.087-2.019l1.283-3.542C178.548,15.942,177.438,18.08,177.438,18.08z M158.741,12.79
			h-4.593l-4.595,10.462h4.569l2.423-5.487l0.011,0.014L156.897,17c0,0-0.01,0.004-0.015,0.004L158.741,12.79z"/>
		<path fill="#D13239" d="M285.509,21.72l4.801-10.667h-4.566l-4.777,10.667h-4.799l4.799-10.667h-4.564l-1.727,3.859h-11.056
			c-4.365,0-6.798,1.665-7.276,4.099c-0.162,0.816-0.021,1.616,0.424,2.312c0.087,0.125,0.188,0.253,0.307,0.387h-0.085h-4.357
			l-2.634-3.83c2.509-0.793,7.454-2.665,7.454-5.358c0-3.132-4.203-3.529-6.791-3.529h-12.609l-1.946,2.569h12.762
			c1.485,0,3.151,0.334,3.151,1.817c0,1.147-1.027,2.025-2.486,2.632c-0.245,0.109-1.396,0.396-2.533,0.671l-1.097,2.496l1.85,2.591
			c0,0,0.962,1.567,2.421,1.567h4.815c0.984,0,2.039-0.366,2.444-1.083c0.02-0.047,0.031-0.09,0.047-0.132
			c1.084,0.911,2.929,1.516,5.695,1.502c3.835-0.026,6.655-1.59,6.923-4.432c0.088-0.669-0.355-1.898-1.04-2.283h4.699l-0.501,1.136
			h0.017l-1.645,3.675c-0.501,1.106,0.29,1.629,1.767,1.629h4.962c0.604,0,1.81-0.209,2.518-0.956
			c0.055,0.64,0.871,0.956,1.862,0.956h4.961c0.845,0,2.718-0.273,3.22-1.629H285.509z M265.639,18.282l-1.516,3.798
			c-4.328,0.442-3.085-2.019-3.085-2.019l1.283-3.542C266.745,16.145,265.639,18.282,265.639,18.282z M242.589,12.878l-4.538,10.459
			h4.463l4.595-10.459H242.589z"/>
	</g>
	<g>
		<g>
			<polygon points="167.877,36.376 167.877,31.899 167.827,31.899 165.442,34.604 163.069,31.92 163.019,31.92 163.019,36.376 
				161.171,36.376 161.171,29.384 162.835,29.384 165.442,32.362 168.05,29.384 169.724,29.384 169.724,36.376 			"/>
			<path d="M177.926,36.376l-0.695-1.47h-3.444l-0.707,1.47H171.1l3.369-7.023h2.042l3.459,7.023H177.926z M175.502,30.874h-0.053
				l-1.219,2.795h2.517L175.502,30.874z"/>
			<path d="M186.388,36.376l-1.231-2.392c-0.103-0.209-0.195-0.261-0.47-0.261h-1.43v2.653h-1.915v-6.948
				c0.999-0.085,2.007-0.126,3.029-0.126c1.794,0,3.719,0.355,3.719,2.137c0,0.87-0.379,1.552-1.479,1.909v0.009
				c0.155,0.041,0.263,0.22,0.329,0.346l1.453,2.674H186.388z M184.448,30.495c-0.42,0-0.785,0.022-1.191,0.053v1.979h1.415
				c0.902,0,1.559-0.177,1.559-1.005C186.23,30.621,185.366,30.495,184.448,30.495"/>
			<path d="M195.832,36.376l-0.694-1.47h-3.445l-0.707,1.47h-1.978l3.366-7.023h2.043l3.46,7.023H195.832z M193.409,30.874h-0.055
				l-1.216,2.795h2.515L193.409,30.874z"/>
			<polygon points="201.925,30.683 201.925,36.376 200.009,36.376 200.009,30.683 197.561,30.683 197.561,29.384 204.387,29.384 
				204.387,30.683 			"/>
			<polygon points="211.053,36.376 211.053,33.407 207.7,33.407 207.7,36.376 205.786,36.376 205.786,29.384 207.7,29.384 
				207.7,31.972 211.053,31.972 211.053,29.384 212.968,29.384 212.968,36.376 			"/>
			<path d="M219.242,36.479c-2.582,0-4.324-1.121-4.324-3.604c0-2.464,1.729-3.607,4.324-3.607c2.604,0,4.321,1.132,4.321,3.607
				C223.563,35.358,221.819,36.479,219.242,36.479 M219.242,30.507c-1.782,0-2.335,0.847-2.335,2.369
				c0,1.507,0.553,2.367,2.335,2.367s2.329-0.86,2.329-2.367C221.571,31.377,221.024,30.507,219.242,30.507"/>
			<polygon points="231.526,36.376 227.427,31.92 227.378,31.92 227.378,36.376 225.515,36.376 225.515,29.384 227.284,29.384 
				231.268,33.765 231.332,33.765 231.332,29.384 233.178,29.384 233.178,36.376 			"/>
			<path d="M242.546,36.479c-1.364,0-2.386-0.241-3.525-0.848l0.84-1.09c0.798,0.42,1.635,0.745,2.59,0.745
				c0.696,0,1.51-0.126,1.51-0.816c0-0.694-1.206-0.839-2.408-1.174c-1.154-0.317-2.27-0.786-2.27-2.044
				c0-1.5,1.639-1.959,3.223-1.959c1.101,0,2.057,0.218,3.026,0.617l-0.682,1.172c-0.653-0.311-1.464-0.564-2.213-0.564
				c-0.76,0-1.427,0.125-1.427,0.682c0,0.573,0.824,0.743,1.887,0.972c1.269,0.274,2.736,0.705,2.736,2.163
				C245.833,35.935,244.34,36.479,242.546,36.479"/>
			<polygon points="247.678,36.376 247.678,29.384 253.641,29.384 253.641,30.662 249.595,30.662 249.595,32.14 253.259,32.14 
				253.259,33.439 249.595,33.439 249.595,35.127 253.771,35.127 253.771,36.376 			"/>
			<path d="M260.516,36.376l-1.229-2.392c-0.105-0.209-0.196-0.261-0.473-0.261h-1.426v2.653h-1.914v-6.948
				c0.996-0.085,2.006-0.126,3.026-0.126c1.794,0,3.72,0.355,3.72,2.137c0,0.87-0.379,1.552-1.481,1.909v0.009
				c0.161,0.041,0.263,0.22,0.329,0.346l1.456,2.674H260.516z M258.579,30.495c-0.42,0-0.785,0.022-1.191,0.053v1.979h1.414
				c0.902,0,1.558-0.177,1.558-1.005C260.359,30.621,259.496,30.495,258.579,30.495"/>
			<rect x="264.186" y="29.384" width="1.911" height="6.992"/>
			<polygon points="268.273,36.376 268.273,29.384 274.231,29.384 274.231,30.662 270.187,30.662 270.187,32.14 273.851,32.14 
				273.851,33.439 270.187,33.439 270.187,35.127 274.364,35.127 274.364,36.376 			"/>
			<path d="M279.067,36.479c-1.365,0-2.386-0.241-3.526-0.848l0.842-1.09c0.797,0.42,1.637,0.745,2.593,0.745
				c0.69,0,1.506-0.126,1.506-0.816c0-0.694-1.207-0.839-2.41-1.174c-1.152-0.317-2.267-0.786-2.267-2.044
				c0-1.5,1.637-1.959,3.224-1.959c1.101,0,2.056,0.218,3.024,0.617l-0.68,1.172c-0.655-0.311-1.468-0.564-2.217-0.564
				c-0.76,0-1.425,0.125-1.425,0.682c0,0.573,0.821,0.743,1.886,0.972c1.271,0.274,2.739,0.705,2.739,2.163
				C282.356,35.935,280.86,36.479,279.067,36.479"/>
		</g>
		<g>
			<path d="M285.229,28.135c0.983,0,1.77,0.799,1.77,1.783c0,0.998-0.786,1.789-1.777,1.789c-0.981,0-1.78-0.791-1.78-1.789
				c0-0.983,0.799-1.783,1.78-1.783H285.229z M285.216,28.491c-0.744,0-1.347,0.643-1.347,1.434c0,0.799,0.603,1.427,1.353,1.427
				c0.752,0.007,1.364-0.628,1.364-1.427c0-0.791-0.612-1.434-1.364-1.434H285.216z M284.915,30.955h-0.42v-1.981
				c0.158-0.023,0.332-0.055,0.634-0.055c0.34,0,0.546,0.055,0.681,0.16c0.11,0.088,0.175,0.221,0.175,0.426
				c0,0.238-0.165,0.405-0.381,0.461v0.017c0.175,0.031,0.285,0.189,0.316,0.482c0.039,0.31,0.079,0.429,0.11,0.492h-0.435
				c-0.047-0.072-0.079-0.246-0.119-0.516c-0.031-0.214-0.159-0.301-0.371-0.301h-0.19V30.955z M284.915,29.814h0.197
				c0.246,0,0.437-0.079,0.437-0.285c0-0.166-0.121-0.294-0.406-0.294c-0.102,0-0.173,0-0.228,0.008V29.814z"/>
		</g>
	</g>
</g>
</svg>
