<?xml version="1.0" encoding="utf-8"?>
<!-- Generator: Adobe Illustrator 16.0.3, SVG Export Plug-In . SVG Version: 6.00 Build 0)  -->
<!DOCTYPE svg PUBLIC "-//W3C//DTD SVG 1.1//EN" "http://www.w3.org/Graphics/SVG/1.1/DTD/svg11.dtd">
<svg version="1.1" id="Layer_1" xmlns="http://www.w3.org/2000/svg" xmlns:xlink="http://www.w3.org/1999/xlink" x="0px" y="0px"
	 width="100.646px" height="29.97px" viewBox="0 0 100.646 29.97" enable-background="new 0 0 100.646 29.97" xml:space="preserve">
<g>
	<g>
		<path fill="#231F20" d="M23.875,7.013h3.435l1.084,9.87l1.121-9.87h3.29l-2.494,17.1h-3.905L23.875,7.013z"/>
		<path fill="#231F20" d="M41.351,20.498c0,2.494-1.374,3.867-3.868,3.867c-2.531,0-3.904-1.373-3.904-3.867v-9.87
			c0-2.494,1.373-3.868,3.904-3.868c2.494,0,3.868,1.374,3.868,3.868v5.64h-4.52v4.302c0,0.65,0.181,0.902,0.651,0.902
			c0.434,0,0.614-0.252,0.614-0.867V17.75h3.254V20.498z M38.097,13.556V10.52c0-0.614-0.181-0.904-0.614-0.904
			c-0.471,0-0.651,0.29-0.651,0.904v3.036H38.097z"/>
		<path fill="#231F20" d="M43.121,0h3.253v24.113h-3.253V0z"/>
		<path fill="#231F20" d="M52.05,24.365c-2.53,0-3.903-1.373-3.903-3.867v-9.87c0-2.494,1.373-3.868,3.903-3.868
			c2.494,0,3.868,1.374,3.868,3.868v9.87C55.918,22.992,54.544,24.365,52.05,24.365z M52.05,21.472c0.434,0,0.614-0.252,0.614-0.902
			V10.52c0-0.614-0.181-0.904-0.614-0.904c-0.47,0-0.65,0.29-0.65,0.904v10.05C51.399,21.22,51.58,21.472,52.05,21.472z"/>
		<path fill="#231F20" d="M57.855,6.684h1.879v1.143c0.812-1.069,1.253-1.363,2.175-1.363c1.694,0,2.615,1.289,2.615,3.574v10.759
			c0,2.32-0.921,3.5-2.689,3.5c-0.885,0-1.474-0.332-1.989-1.068v6.742h-1.99V6.684z M61.208,8.231
			c-0.957,0-1.362,0.552-1.362,1.806v10.722c0,1.252,0.405,1.768,1.362,1.768c0.922,0,1.327-0.516,1.327-1.768V10.037
			C62.535,8.783,62.13,8.231,61.208,8.231z"/>
		<path fill="#231F20" d="M66.662,24.113V6.684h1.694v1.216c0.811-1.216,1.069-1.363,1.99-1.363c0.258,0,0.368,0,0.7,0.074v1.916
			c-0.663,0.11-0.848,0.146-1.105,0.294c-0.848,0.442-1.29,1.363-1.29,2.764v12.529H66.662z"/>
		<path fill="#231F20" d="M78.6,20.796c0,2.32-1.18,3.574-3.316,3.574c-2.174,0-3.353-1.254-3.353-3.574V9.963
			c0-2.284,1.179-3.537,3.353-3.537c2.137,0,3.316,1.253,3.316,3.537v5.711h-4.68v5.085c0,1.252,0.405,1.768,1.363,1.768
			c0.922,0,1.326-0.516,1.326-1.73v-3.133h1.99V20.796z M76.609,13.537v-3.5c0-1.254-0.404-1.806-1.326-1.806
			c-0.958,0-1.363,0.552-1.363,1.806v3.5H76.609z"/>
		<path fill="#231F20" d="M85.121,12.837v-2.395c0-1.069-0.037-1.364-0.221-1.695c-0.222-0.295-0.627-0.479-1.106-0.479
			c-0.958,0-1.363,0.516-1.363,1.77v1.51c0,0.922,0.074,1.216,0.369,1.622c0.258,0.331,0.663,0.663,1.29,0.958l0.884,0.479
			c0.921,0.479,1.363,0.811,1.694,1.4c0.369,0.589,0.479,1.031,0.479,2.322v2.469c0,2.32-1.179,3.574-3.354,3.574
			c-1.031,0-2.063-0.443-2.652-1.07c-0.516-0.588-0.7-1.326-0.7-2.689v-2.689h1.989v2.432c0,1.068,0.074,1.363,0.259,1.658
			c0.221,0.332,0.626,0.516,1.104,0.516c0.921,0,1.327-0.516,1.327-1.768v-2.064c0-0.92-0.037-1.215-0.332-1.621
			c-0.258-0.367-0.405-0.479-1.289-0.958l-0.553-0.332c-0.332-0.184-0.553-0.295-0.664-0.368c-0.404-0.258-0.773-0.553-1.068-0.958
			c-0.553-0.7-0.773-1.548-0.773-3.059V9.963c0-2.284,1.179-3.537,3.353-3.537c1.032,0,2.027,0.405,2.616,1.068
			c0.516,0.59,0.737,1.326,0.737,2.689v2.653H85.121z"/>
		<path fill="#231F20" d="M93.632,12.837v-2.395c0-1.069-0.036-1.364-0.222-1.695c-0.221-0.295-0.625-0.479-1.104-0.479
			c-0.958,0-1.363,0.516-1.363,1.77v1.51c0,0.922,0.073,1.216,0.368,1.622c0.258,0.331,0.663,0.663,1.289,0.958l0.885,0.479
			c0.922,0.479,1.363,0.811,1.695,1.4c0.368,0.589,0.479,1.031,0.479,2.322v2.469c0,2.32-1.179,3.574-3.353,3.574
			c-1.031,0-2.063-0.443-2.653-1.07c-0.516-0.588-0.7-1.326-0.7-2.689v-2.689h1.99v2.432c0,1.068,0.073,1.363,0.258,1.658
			c0.221,0.332,0.626,0.516,1.105,0.516c0.921,0,1.326-0.516,1.326-1.768v-2.064c0-0.92-0.036-1.215-0.332-1.621
			c-0.258-0.367-0.404-0.479-1.289-0.958l-0.553-0.332c-0.332-0.184-0.553-0.295-0.663-0.368c-0.405-0.258-0.773-0.553-1.069-0.958
			c-0.552-0.7-0.773-1.548-0.773-3.059V9.963c0-2.284,1.18-3.537,3.354-3.537c1.031,0,2.026,0.405,2.615,1.068
			c0.517,0.59,0.737,1.326,0.737,2.689v2.653H93.632z"/>
	</g>
	<path fill="#DC4E3A" d="M11.419,24.757L0,7.04h13.348l2.874,4.683l3.164-4.683h3.456L11.419,24.757z"/>
	<g>
		<path fill="#231F20" d="M98.394,3.656c1.254,0,2.253,1.02,2.253,2.293c0,1.295-0.999,2.304-2.263,2.304
			c-1.254,0-2.272-1.009-2.272-2.304c0-1.273,1.019-2.293,2.272-2.293H98.394z M98.384,4.013c-1.009,0-1.835,0.866-1.835,1.937
			c0,1.091,0.826,1.947,1.845,1.947c1.02,0.01,1.835-0.856,1.835-1.937c0-1.081-0.815-1.947-1.835-1.947H98.384z M97.955,7.284
			h-0.407V4.727c0.214-0.031,0.418-0.062,0.724-0.062c0.388,0,0.643,0.082,0.795,0.193c0.152,0.112,0.234,0.286,0.234,0.53
			c0,0.337-0.225,0.54-0.499,0.622v0.021c0.225,0.041,0.377,0.244,0.428,0.621c0.062,0.397,0.123,0.551,0.163,0.632h-0.428
			c-0.062-0.081-0.122-0.315-0.174-0.652c-0.061-0.325-0.225-0.448-0.551-0.448h-0.285V7.284z M97.955,5.868h0.296
			c0.337,0,0.622-0.122,0.622-0.438c0-0.225-0.163-0.448-0.622-0.448c-0.132,0-0.225,0.01-0.296,0.021V5.868z"/>
	</g>
</g>
</svg>
