<?xml version="1.0" encoding="utf-8"?>
<!-- Generator: Adobe Illustrator 16.0.3, SVG Export Plug-In . SVG Version: 6.00 Build 0)  -->
<!DOCTYPE svg PUBLIC "-//W3C//DTD SVG 1.1//EN" "http://www.w3.org/Graphics/SVG/1.1/DTD/svg11.dtd">
<svg version="1.1" id="Layer_1" xmlns="http://www.w3.org/2000/svg" xmlns:xlink="http://www.w3.org/1999/xlink" x="0px" y="0px"
	 width="401.735px" height="152.954px" viewBox="0 0 401.735 152.954" enable-background="new 0 0 401.735 152.954"
	 xml:space="preserve">
<g>
	<g>
		<path fill="#FFFFFF" d="M397.235,89.68c-2.481,0-4.5,2.019-4.5,4.5s2.019,4.5,4.5,4.5c2.48,0,4.5-2.019,4.5-4.5
			S399.715,89.68,397.235,89.68 M397.235,97.606c-1.891,0-3.427-1.537-3.427-3.427c0-1.888,1.536-3.426,3.427-3.426
			c1.889,0,3.426,1.538,3.426,3.426C400.661,96.069,399.124,97.606,397.235,97.606"/>
		<path fill="#FFFFFF" d="M399.038,93.476c0-1.051-0.506-1.485-1.56-1.485h-1.736v4.607h0.778v-1.571h1.026l0.632,1.571h0.859
			l-0.728-1.797C398.784,94.566,399.038,94.167,399.038,93.476 M397.493,94.28h-0.973v-1.544h0.958c0.507,0,0.753,0.246,0.753,0.752
			C398.231,93.961,398.032,94.28,397.493,94.28"/>
		<polygon fill="#FFFFFF" points="367.949,38.513 367.962,56.571 360.515,38.513 337.315,38.535 337.315,98.68 359.332,98.68 
			359.301,75.652 368.72,98.68 390.356,98.68 390.356,38.513 		"/>
		<path fill="#FFFFFF" d="M308.986,98.684h24.952l-10.672-60.193h-38.081l-9.806,60.193h24.653l1.323-14.291h6.307L308.986,98.684z
			 M302.479,71.103l1.588-15.243h0.882l1.592,15.243H302.479z"/>
		<path fill="#CF0A2C" d="M235.468,35.216c9.725,0,17.606-7.883,17.606-17.608S245.193,0,235.468,0
			c-9.726,0-17.608,7.883-17.608,17.608S225.743,35.216,235.468,35.216"/>
		<polygon fill="#CF0A2C" points="199.848,38.513 199.848,98.68 221.204,98.68 221.206,76.313 229.338,98.68 241.598,98.68 
			249.73,76.313 249.732,98.68 271.087,98.68 271.087,38.513 		"/>
		<polygon fill="#FFFFFF" points="173.146,38.513 173.16,56.571 165.713,38.513 142.513,38.535 142.513,98.68 164.529,98.68 
			164.499,75.652 173.919,98.68 195.555,98.68 195.555,38.513 		"/>
		<path fill="#FFFFFF" d="M126.22,37.757H96.57c-6.599,0-11.999,5.534-11.999,12.297v37.084c0,6.764,5.4,12.297,11.999,12.297h29.65
			c6.6,0,12-5.533,12-12.297V50.054C138.22,43.292,132.82,37.757,126.22,37.757 M115.191,82.115c0,2.148-1.7,3.89-3.796,3.89
			c-2.096,0-3.795-1.742-3.795-3.89V55.077c0-2.148,1.699-3.89,3.795-3.89c2.096,0,3.796,1.742,3.796,3.89V82.115z"/>
		<path fill="#FFFFFF" d="M72.653,66.087c-0.149-0.015,0.119,0,0.307,0c4.763,0,8.624-6.173,8.624-13.787
			c0-7.571-3.819-13.719-8.546-13.787H27.69v0.001v6.591v53.579l24.858-0.002V73.766h2.935c1.606,0,2.906,1.686,2.938,3.779h0.005
			v0.066v21.071l22.851-0.002V79.874C81.277,72.26,77.392,66.57,72.653,66.087 M54.241,60.046h-1.701v-8.36
			c0,0,1.639-0.012,1.701-0.012c2.312,0,4.186,1.874,4.186,4.185C58.427,58.172,56.553,60.046,54.241,60.046"/>
		<polygon fill="#FFFFFF" points="23.397,98.68 0,98.68 0,38.514 23.381,38.514 		"/>
		<path fill="#FFFFFF" d="M71.648,135.507l-3.857,17.144h3.479l0.68-3.101h6.001l0.68,3.101h3.479l-3.857-17.144H71.648z
			 M72.606,146.524l1.74-8.144h1.21l1.739,8.144H72.606z"/>
		<polygon fill="#FFFFFF" points="94.666,149.625 94.414,149.625 90.279,135.507 84.405,135.507 84.405,152.65 87.884,152.65 
			87.884,138.532 88.136,138.532 92.422,152.65 98.145,152.65 98.145,135.507 94.666,135.507 		"/>
		<polygon fill="#FFFFFF" points="107.019,142.339 103.867,135.507 100.01,135.507 105.305,145.717 105.305,152.651 
			108.784,152.651 108.784,145.717 114.028,135.507 110.17,135.507 		"/>
		<polygon fill="#FFFFFF" points="114.38,138.583 118.968,138.583 118.968,152.65 122.447,152.65 122.447,138.583 126.986,138.583 
			126.986,135.507 114.38,135.507 		"/>
		<polygon fill="#FFFFFF" points="139.037,142.516 132.658,142.516 132.658,135.507 129.179,135.507 129.179,152.65 132.658,152.65 
			132.658,145.541 139.037,145.541 139.037,152.65 142.516,152.65 142.516,135.507 139.037,135.507 		"/>
		<rect x="146.248" y="135.507" fill="#FFFFFF" width="3.479" height="17.144"/>
		<polygon fill="#FFFFFF" points="163.718,149.625 163.466,149.625 159.332,135.507 153.458,135.507 153.458,152.65 156.937,152.65 
			156.937,138.532 157.188,138.532 161.475,152.65 167.197,152.65 167.197,135.507 163.718,135.507 		"/>
		<path fill="#FFFFFF" d="M175.29,138.733c0.521-0.302,1.424-0.453,2.71-0.453c1.286,0,2.937,0.109,4.954,0.327l0.101-2.697
			l-0.908-0.177c-1.815-0.353-3.504-0.529-5.067-0.529c-2.505,0-4.278,0.689-5.32,2.067c-1.042,1.379-1.563,3.622-1.563,6.732
			c0,3.108,0.5,5.378,1.5,6.807s2.837,2.143,5.509,2.143c1.496,0,3.445-0.193,5.849-0.579v-8.9h-4.992v3.026h1.563v3.327
			l-2.092,0.101c-1.53,0-2.538-0.395-3.026-1.185c-0.487-0.79-0.731-2.173-0.731-4.147s0.122-3.369,0.366-4.185
			C174.386,139.596,174.769,139.036,175.29,138.733"/>
		<rect x="191.879" y="135.507" fill="#FFFFFF" width="3.479" height="17.144"/>
		<path fill="#FFFFFF" d="M205.48,142.516c-1.672-0.538-2.734-0.949-3.188-1.235c-0.454-0.285-0.682-0.697-0.682-1.235
			c0-1.21,0.916-1.815,2.748-1.815c0.976,0,2.647,0.136,5.018,0.403l0.276-2.748l-0.906-0.176c-1.916-0.336-3.496-0.505-4.74-0.505
			c-1.815,0-3.244,0.421-4.286,1.261c-1.042,0.841-1.563,2.118-1.563,3.832c0,1.362,0.399,2.425,1.198,3.189
			c0.798,0.765,2.172,1.425,4.122,1.979c1.227,0.354,2.046,0.681,2.458,0.984c0.412,0.302,0.618,0.722,0.618,1.26
			c0,1.479-0.891,2.219-2.673,2.219c-1.193,0-2.916-0.151-5.168-0.454l-0.353,2.698l0.908,0.176
			c1.899,0.404,3.504,0.606,4.815,0.606c1.765,0,3.192-0.462,4.286-1.388c1.092-0.924,1.639-2.284,1.639-4.084
			c0-1.412-0.337-2.458-1.009-3.139C208.325,143.663,207.152,143.054,205.48,142.516"/>
		<path fill="#FFFFFF" d="M224.653,135.507h-6.303v17.144h3.479v-4.992h2.823c2.001,0,3.517-0.533,4.551-1.601
			s1.55-2.601,1.55-4.601C230.753,137.49,228.72,135.507,224.653,135.507 M224.627,144.684h-2.798v-6.202h2.798
			c0.892,0,1.546,0.231,1.967,0.693c0.419,0.463,0.63,1.223,0.63,2.282C227.224,143.608,226.359,144.684,224.627,144.684"/>
		<path fill="#FFFFFF" d="M239.553,135.204c-2.606,0-4.442,0.735-5.509,2.206c-1.067,1.471-1.603,3.719-1.603,6.744
			s0.535,5.248,1.603,6.668c1.066,1.421,2.902,2.131,5.509,2.131c2.604,0,4.44-0.71,5.509-2.131c1.066-1.42,1.6-3.643,1.6-6.668
			s-0.533-5.273-1.6-6.744C243.994,135.939,242.157,135.204,239.553,135.204 M242.338,148.604c-0.495,0.882-1.424,1.323-2.785,1.323
			s-2.291-0.441-2.786-1.323c-0.496-0.883-0.743-2.361-0.743-4.437c0-2.076,0.252-3.584,0.755-4.526
			c0.504-0.941,1.43-1.412,2.774-1.412s2.268,0.471,2.772,1.412c0.505,0.942,0.757,2.45,0.757,4.526
			C243.083,146.243,242.834,147.722,242.338,148.604"/>
		<path fill="#FFFFFF" d="M256.029,142.516c-1.673-0.538-2.736-0.949-3.189-1.235c-0.455-0.285-0.681-0.697-0.681-1.235
			c0-1.21,0.916-1.815,2.748-1.815c0.975,0,2.646,0.136,5.017,0.403l0.278-2.748l-0.908-0.176c-1.916-0.336-3.496-0.505-4.741-0.505
			c-1.814,0-3.243,0.421-4.285,1.261c-1.043,0.841-1.563,2.118-1.563,3.832c0,1.362,0.398,2.425,1.197,3.189
			c0.798,0.765,2.173,1.425,4.122,1.979c1.228,0.354,2.046,0.681,2.459,0.984c0.41,0.302,0.616,0.722,0.616,1.26
			c0,1.479-0.891,2.219-2.673,2.219c-1.192,0-2.916-0.151-5.168-0.454l-0.352,2.698l0.907,0.176
			c1.899,0.404,3.505,0.606,4.815,0.606c1.764,0,3.193-0.462,4.286-1.388c1.092-0.924,1.637-2.284,1.637-4.084
			c0-1.412-0.336-2.458-1.007-3.139C258.874,143.663,257.701,143.054,256.029,142.516"/>
		<path fill="#FFFFFF" d="M269.743,142.516c-1.673-0.538-2.735-0.949-3.188-1.235c-0.455-0.285-0.681-0.697-0.681-1.235
			c0-1.21,0.915-1.815,2.748-1.815c0.974,0,2.646,0.136,5.017,0.403l0.277-2.748l-0.907-0.176c-1.917-0.336-3.496-0.505-4.741-0.505
			c-1.814,0-3.244,0.421-4.286,1.261c-1.042,0.841-1.562,2.118-1.562,3.832c0,1.362,0.397,2.425,1.197,3.189
			c0.798,0.765,2.172,1.425,4.121,1.979c1.228,0.354,2.047,0.681,2.458,0.984c0.412,0.302,0.618,0.722,0.618,1.26
			c0,1.479-0.891,2.219-2.673,2.219c-1.192,0-2.916-0.151-5.169-0.454l-0.351,2.698l0.905,0.176
			c1.901,0.404,3.506,0.606,4.816,0.606c1.765,0,3.194-0.462,4.287-1.388c1.091-0.924,1.637-2.284,1.637-4.084
			c0-1.412-0.336-2.458-1.007-3.139C272.587,143.663,271.416,143.054,269.743,142.516"/>
		<rect x="277.067" y="135.507" fill="#FFFFFF" width="3.479" height="17.144"/>
		<path fill="#FFFFFF" d="M294.462,143.826c0.689-0.437,1.176-0.937,1.461-1.5c0.287-0.563,0.43-1.323,0.43-2.281
			c0-1.596-0.445-2.752-1.337-3.467c-0.891-0.713-2.227-1.071-4.009-1.071h-6.73v17.144h6.832c1.765,0,3.135-0.403,4.109-1.21
			s1.462-2.042,1.462-3.706c0-1.075-0.18-1.916-0.542-2.521C295.777,144.608,295.218,144.146,294.462,143.826 M287.755,138.481
			h3.076c1.328,0,1.992,0.681,1.992,2.042c0,1.362-0.655,2.043-1.967,2.043h-3.102V138.481z M292.609,149.222
			c-0.361,0.303-0.92,0.454-1.677,0.454h-3.177v-4.185h3.177c1.479,0,2.22,0.688,2.22,2.066
			C293.152,148.365,292.969,148.919,292.609,149.222"/>
		<polygon fill="#FFFFFF" points="303.11,135.507 299.63,135.507 299.63,152.651 309.386,152.651 309.386,149.575 303.11,149.575 		
			"/>
		<polygon fill="#FFFFFF" points="311.53,152.65 322.623,152.65 322.623,149.625 315.008,149.625 315.008,145.516 321.11,145.516 
			321.11,142.541 315.008,142.541 315.008,138.532 322.623,138.532 322.623,135.507 311.53,135.507 		"/>
		<polygon fill="#FFFFFF" points="324.663,135.888 325.529,135.888 325.529,138.426 325.902,138.426 325.902,135.888 
			326.773,135.888 326.773,135.575 324.663,135.575 		"/>
		<path fill="#FFFFFF" d="M329.749,135.574h-0.471l-0.507,1.379c-0.127,0.36-0.229,0.673-0.305,0.96h-0.008
			c-0.076-0.295-0.17-0.608-0.288-0.96l-0.486-1.379h-0.47l-0.199,2.853h0.351l0.076-1.224c0.026-0.432,0.047-0.904,0.056-1.261
			h0.009c0.081,0.339,0.189,0.702,0.326,1.109l0.465,1.357h0.279l0.504-1.384c0.144-0.393,0.258-0.753,0.358-1.083h0.009
			c0,0.351,0.025,0.833,0.047,1.232l0.067,1.252h0.364L329.749,135.574z"/>
	</g>
</g>
</svg>
